…
## Examples

### tr_anno_cleaner()
Clean annotation files (CSV or TSV) for *Pseudomonas aeruginosa* from
[pseudomonas.com](pseudomonas.com), with some options for customizing output:
```r
> tr_anno_cleaner(
  "Downloads/Pseudomonas_aeruginosa_PAO1_107.csv",
  extra_cols = FALSE, 
  fill_names = FALSE
)
# # A tibble: 5,711 x 3
#    locus_tag gene_name product_name                           
#    <chr>     <chr>     <chr>                                         
#  1 PA0001    dnaA      chromosomal replication initiator protein DnaA
#  2 PA0002    dnaN      DNA polymerase III, beta chain                
#  3 PA0003    recF      RecF protein                                  
#  4 PA0004    gyrB      DNA gyrase subunit B                          
#  5 PA0005    lptA      lysophosphatidic acid acyltransferase, LptA   
#  6 PA0006    NA        conserved hypothetical protein                
#  7 PA0007    NA        hypothetical protein                          
#  8 PA0008    glyS      glycyl-tRNA synthetase beta chain             
#  9 PA0009    glyQ      glycyl-tRNA synthetase alpha chain            
# 10 PA0010    tag       DNA-3-methyladenine glycosidase I             
# # ... with 5,701 more rows
```
…
