…
## tr_anno_cleaner

Clean annotation files (CSV or TSV) for *Pseudomonas aeruginosa* from
<https://pseudomonas.com>.

``` r
# For this vignette we use a file that comes with the package.
link <- system.file(
  "extdata/Pseudomonas_aeruginosa_PAO1_107.csv.gz",
  package = "tRavis"
)

tr_anno_cleaner(input_file = link)
#> # A tibble: 5,713 × 3
#>    locus_tag gene_name product_name                                  
#>    <chr>     <chr>     <chr>                                         
#>  1 PA0001    dnaA      chromosomal replication initiator protein DnaA
#>  2 PA0002    dnaN      DNA polymerase III, beta chain                
#>  3 PA0003    recF      RecF protein                                  
#>  4 PA0004    gyrB      DNA gyrase subunit B                          
#>  5 PA0005    lptA      lysophosphatidic acid acyltransferase, LptA   
#>  6 PA0006    NA        conserved hypothetical protein                
#>  7 PA0007    NA        hypothetical protein                          
#>  8 PA0008    glyS      glycyl-tRNA synthetase beta chain             
#>  9 PA0009    glyQ      glycyl-tRNA synthetase alpha chain            
#> 10 PA0010    tag       DNA-3-methyladenine glycosidase I             
#> # ℹ 5,703 more rows
```

Or add some extra columns and fill empty names with the corresponding
locus tag.

``` r
tr_anno_cleaner(link, extra_cols = TRUE, fill_names = TRUE)
#> # A tibble: 5,713 × 6
#>    locus_tag gene_name product_name                           start   end strand
#>    <chr>     <chr>     <chr>                                  <int> <int> <chr> 
#>  1 PA0001    dnaA      chromosomal replication initiator pro…   483  2027 +     
#>  2 PA0002    dnaN      DNA polymerase III, beta chain          2056  3159 +     
#>  3 PA0003    recF      RecF protein                            3169  4278 +     
#>  4 PA0004    gyrB      DNA gyrase subunit B                    4275  6695 +     
#>  5 PA0005    lptA      lysophosphatidic acid acyltransferase…  7018  7791 -     
#>  6 PA0006    PA0006    conserved hypothetical protein          7803  8339 -     
#>  7 PA0007    PA0007    hypothetical protein                    8671 10377 +     
#>  8 PA0008    glyS      glycyl-tRNA synthetase beta chain      10434 12488 -     
#>  9 PA0009    glyQ      glycyl-tRNA synthetase alpha chain     12488 13435 -     
#> 10 PA0010    tag       DNA-3-methyladenine glycosidase I      13540 14091 +     
#> # ℹ 5,703 more rows
```
…
``` r
tr_clean_deseq2_result(ex_deseq_results)
#> Found 100 DE genes for condition B vs A.
#> # A tibble: 100 × 7
#>    gene    baseMean log2FoldChange lfcSE   stat   pvalue     padj
#>    <chr>      <dbl>          <dbl> <dbl>  <dbl>    <dbl>    <dbl>
#>  1 gene95     853.            3.35 0.279  12.0  3.26e-33 6.53e-31
#>  2 gene197    591.            3.29 0.279  11.8  4.53e-32 4.53e-30
#>  3 gene180    420.            3.30 0.298  11.1  1.57e-28 1.05e-26
#>  4 gene70     235.           -2.91 0.276 -10.5  5.23e-26 2.62e-24
#>  5 gene106    886.            3.08 0.303  10.1  3.80e-24 1.52e-22
#>  6 gene187     57.3          -4.28 0.428 -10.0  1.42e-23 4.74e-22
#>  7 gene26      93.9           4.62 0.473   9.77 1.47e-22 4.20e-21
#>  8 gene68      72.7          -3.23 0.345  -9.37 7.58e-21 1.90e-19
#>  9 gene122    462.            2.63 0.307   8.58 9.79e-18 2.18e-16
#> 10 gene39     191.            2.67 0.325   8.20 2.33e-16 4.66e-15
#> # ℹ 90 more rows
```
…
The points can be toggled on or off using the `add_points` argument.

### Data

All the underlying tidy data is also returned, so one can easily
generate their own plots or further examine the data as desired:

- Phred scores
- FastQC reads
- STAR
- HTSeq

``` r
qc_plot_output[["data"]][["phred_scores"]]
#> # A tibble: 760 × 3
#>    sample    position phred_score
#>    <chr>        <int>       <dbl>
#>  1 sample_01        1        35.5
#>  2 sample_02        1        35.5
#>  3 sample_03        1        35.5
#>  4 sample_04        1        35.5
#>  5 sample_05        1        35.5
#>  6 sample_06        1        35.5
#>  7 sample_07        1        35.5
#>  8 sample_08        1        35.5
#>  9 sample_09        1        35.5
#> 10 sample_10        1        35.6
#> # ℹ 750 more rows
```
…
``` r
qc_plot_output[["data"]][["star"]]
#> # A tibble: 100 × 3
#>    Samples   read_type   n_reads
#>    <fct>     <fct>         <int>
#>  1 sample_03 unique      6352702
#>  2 sample_03 multimapped 3876206
#>  3 sample_03 too many       2908
#>  4 sample_03 too short   3354213
#>  5 sample_03 unmapped       8158
#>  6 sample_02 unique      6489051
#>  7 sample_02 multimapped 3880477
#>  8 sample_02 too many       2416
#>  9 sample_02 too short   3509469
#> 10 sample_02 unmapped       5555
#> # ℹ 90 more rows
```

``` r
qc_plot_output[["data"]][["htseq"]]
#> # A tibble: 100 × 3
#>    Samples   read_type  n_reads
#>    <fct>     <fct>        <int>
#>  1 sample_03 assigned   4724190
#>  2 sample_03 ambiguous  1228684
#>  3 sample_03 not unique 3876206
#>  4 sample_03 no feature  399828
#>  5 sample_03 low aQual        0
#>  6 sample_02 assigned   4831854
#>  7 sample_02 ambiguous  1243270
#>  8 sample_02 not unique 3880477
#>  9 sample_02 no feature  413927
#> 10 sample_02 low aQual        0
#> # ℹ 90 more rows
```
…
tr_tidy_gage(gage_untidy, qval = 1)
#> # A tibble: 70 × 7
#>    pathway                      p_geomean stat_mean  p_val q_val set_size   exp1
#>    <chr>                            <dbl>     <dbl>  <dbl> <dbl>    <dbl>  <dbl>
#>  1 pae00650 Butanoate metaboli…    0.0499     1.72  0.0499 0.678       12 0.0499
#>  2 pae00280 Valine, leucine an…    0.0533     1.67  0.0533 0.678       14 0.0533
#>  3 pae01212 Fatty acid metabol…    0.0858     1.40  0.0858 0.678       15 0.0858
#>  4 pae02025 Biofilm formation …    0.140      1.09  0.140  0.678       35 0.140 
#>  5 pae00620 Pyruvate metabolism    0.171      0.963 0.171  0.678       18 0.171 
#>  6 pae00061 Fatty acid biosynt…    0.233      0.746 0.233  0.678       11 0.233 
#>  7 pae00640 Propanoate metabol…    0.252      0.679 0.252  0.678       14 0.252 
#>  8 pae01232 Nucleotide metabol…    0.272      0.614 0.272  0.678       14 0.272 
#>  9 pae00970 Aminoacyl-tRNA bio…    0.298      0.535 0.298  0.678       23 0.298 
#> 10 pae01503 Cationic antimicro…    0.346      0.403 0.346  0.678       10 0.346 
#> # ℹ 60 more rows
```
…
