An overview of tRavis • tRavis
…
tr_anno_cleaner

Clean annotation files (CSV or TSV) for Pseudomonas
aeruginosa from https://pseudomonas.com.

# A URL can also be supplied, instead of a local file path
link <- paste0(
  "https://pseudomonas.com/downloads/pseudomonas/pgd_r_22_1/",
  "Pseudomonas_aeruginosa_PAO1_107/Pseudomonas_aeruginosa_PAO1_107.csv.gz"
)

tr_anno_cleaner(input_file = link)
#> # A tibble: 5,713 × 3
#>    locus_tag gene_name product_name                                  
#>    <chr>     <chr>     <chr>                                         
#>  1 PA0001    dnaA      chromosomal replication initiator protein DnaA
#>  2 PA0002    dnaN      DNA polymerase III, beta chain                
#>  3 PA0003    recF      RecF protein                                  
#>  4 PA0004    gyrB      DNA gyrase subunit B                          
#>  5 PA0005    lptA      lysophosphatidic acid acyltransferase, LptA   
#>  6 PA0006    NA        conserved hypothetical protein                
#>  7 PA0007    NA        hypothetical protein                          
#>  8 PA0008    glyS      glycyl-tRNA synthetase beta chain             
#>  9 PA0009    glyQ      glycyl-tRNA synthetase alpha chain            
#> 10 PA0010    tag       DNA-3-methyladenine glycosidase I             
#> # ℹ 5,703 more rows

Or add some extra columns and fill empty names with the corresponding
locus tag.

tr_anno_cleaner(link, extra_cols = TRUE, fill_names = TRUE)
#> # A tibble: 5,713 × 6
#>    locus_tag gene_name product_name                           start   end strand
#>    <chr>     <chr>     <chr>                                  <dbl> <dbl> <chr> 
#>  1 PA0001    dnaA      chromosomal replication initiator pro…   483  2027 +     
#>  2 PA0002    dnaN      DNA polymerase III, beta chain          2056  3159 +     
#>  3 PA0003    recF      RecF protein                            3169  4278 +     
#>  4 PA0004    gyrB      DNA gyrase subunit B                    4275  6695 +     
#>  5 PA0005    lptA      lysophosphatidic acid acyltransferase…  7018  7791 -     
#>  6 PA0006    PA0006    conserved hypothetical protein          7803  8339 -     
#>  7 PA0007    PA0007    hypothetical protein                    8671 10377 +     
#>  8 PA0008    glyS      glycyl-tRNA synthetase beta chain      10434 12488 -     
#>  9 PA0009    glyQ      glycyl-tRNA synthetase alpha chain     12488 13435 -     
#> 10 PA0010    tag       DNA-3-methyladenine glycosidase I      13540 14091 +     
#> # ℹ 5,703 more rows
…
tr_clean_deseq2_result(ex_deseq_results)
#> Found 100 DE genes for condition B vs A.
#> # A tibble: 100 × 7
#>    gene    baseMean log2FoldChange lfcSE   stat   pvalue     padj
#>    <chr>      <dbl>          <dbl> <dbl>  <dbl>    <dbl>    <dbl>
#>  1 gene95     853.            3.35 0.279  12.0  3.26e-33 6.53e-31
#>  2 gene197    591.            3.29 0.279  11.8  4.53e-32 4.53e-30
#>  3 gene180    420.            3.30 0.298  11.1  1.57e-28 1.05e-26
#>  4 gene70     235.           -2.91 0.276 -10.5  5.23e-26 2.62e-24
#>  5 gene106    886.            3.08 0.303  10.1  3.80e-24 1.52e-22
#>  6 gene187     57.3          -4.28 0.428 -10.0  1.42e-23 4.74e-22
#>  7 gene26      93.9           4.62 0.473   9.77 1.47e-22 4.20e-21
#>  8 gene68      72.7          -3.23 0.345  -9.37 7.58e-21 1.90e-19
#>  9 gene122    462.            2.63 0.307   8.58 9.79e-18 2.18e-16
#> 10 gene39     191.            2.67 0.325   8.20 2.33e-16 4.66e-15
#> # ℹ 90 more rows
…
Data

All the underlying tidy data is also returned, so one can easily
generate their own plots or further examine the data as desired:

Phred scores

FastQC reads

STAR

HTSeq

qc_plot_output[["data"]][["phred_scores"]]
#> # A tibble: 760 × 3
#>    sample    position phred_score
#>    <chr>        <int>       <dbl>
#>  1 sample_01        1        35.5
#>  2 sample_02        1        35.5
#>  3 sample_03        1        35.5
#>  4 sample_04        1        35.5
#>  5 sample_05        1        35.5
#>  6 sample_06        1        35.5
#>  7 sample_07        1        35.5
#>  8 sample_08        1        35.5
#>  9 sample_09        1        35.5
#> 10 sample_10        1        35.6
#> # ℹ 750 more rows

qc_plot_output[["data"]][["fastqc_reads"]]
#> # A tibble: 40 × 3
#>    Samples   read_type   n_reads
#>    <fct>     <chr>         <dbl>
#>  1 sample_03 unique     2685620.
#>  2 sample_03 duplicate 10908567.
#>  3 sample_02 unique     2803309.
#>  4 sample_02 duplicate 11083659.
#>  5 sample_05 unique     3006011.
#>  6 sample_05 duplicate 12419121.
#>  7 sample_12 unique     3186383.
#>  8 sample_12 duplicate 12738310.
#>  9 sample_19 unique     2725919.
#> 10 sample_19 duplicate 14029645.
#> # ℹ 30 more rows

qc_plot_output[["data"]][["star"]]
#> # A tibble: 100 × 3
#>    Samples   read_type   n_reads
#>    <fct>     <fct>         <int>
#>  1 sample_03 unique      6352702
#>  2 sample_03 multimapped 3876206
#>  3 sample_03 too many       2908
#>  4 sample_03 too short   3354213
#>  5 sample_03 unmapped       8158
#>  6 sample_02 unique      6489051
#>  7 sample_02 multimapped 3880477
#>  8 sample_02 too many       2416
#>  9 sample_02 too short   3509469
#> 10 sample_02 unmapped       5555
#> # ℹ 90 more rows

qc_plot_output[["data"]][["htseq"]]
#> # A tibble: 100 × 3
#>    Samples   read_type  n_reads
#>    <fct>     <fct>        <int>
#>  1 sample_03 assigned   4724190
#>  2 sample_03 ambiguous  1228684
#>  3 sample_03 not unique 3876206
#>  4 sample_03 no feature  399828
#>  5 sample_03 low aQual        0
#>  6 sample_02 assigned   4831854
#>  7 sample_02 ambiguous  1243270
#>  8 sample_02 not unique 3880477
#>  9 sample_02 no feature  413927
#> 10 sample_02 low aQual        0
#> # ℹ 90 more rows
…
tr_tidy_gage(gage_untidy, qval = 1)
#> # A tibble: 70 × 7
#>    pathway                      p_geomean stat_mean  p_val q_val set_size   exp1
#>    <chr>                            <dbl>     <dbl>  <dbl> <dbl>    <dbl>  <dbl>
#>  1 pae00470 D-Amino acid metab…    0.0630     1.61  0.0630 0.924       10 0.0630
#>  2 pae01232 Nucleotide metabol…    0.111      1.24  0.111  0.924       16 0.111 
#>  3 pae00640 Propanoate metabol…    0.167      0.994 0.167  0.924       11 0.167 
#>  4 pae00330 Arginine and proli…    0.179      0.937 0.179  0.924       14 0.179 
#>  5 pae03010 Ribosome               0.197      0.862 0.197  0.924       19 0.197 
#>  6 pae01210 2-Oxocarboxylic ac…    0.250      0.684 0.250  0.924       12 0.250 
#>  7 pae02040 Flagellar assembly     0.267      0.635 0.267  0.924       11 0.267 
#>  8 pae00620 Pyruvate metabolism    0.302      0.526 0.302  0.924       13 0.302 
#>  9 pae02024 Quorum sensing         0.327      0.452 0.327  0.924       29 0.327 
#> 10 pae00405 Phenazine biosynth…    0.367      0.345 0.367  0.924       10 0.367 
#> # ℹ 60 more rows
…
